{
  "com.badlogic.gdx.graphics.Color": {
    "white": {
      "r": 1,
      "g": 1,
      "b": 1,
      "a": 1
    },
    "red": {
      "r": 1,
      "g": 0,
      "b": 0,
      "a": 1
    },
    "yellow": {
      "r": 0.5,
      "g": 0.5,
      "b": 0,
      "a": 1
    }
  },
  "com.badlogic.gdx.graphics.g2d.BitmapFont": {
    "roboto": {
      "file": "font/roboto_new.fnt"
    }
  },
  "com.badlogic.gdx.scenes.scene2d.ui.Label$LabelStyle": {
    "default": {
      "font": "roboto",
      "fontColor": "white"
    }
  },
  "com.badlogic.gdx.scenes.scene2d.ui.TextButton$TextButtonStyle": {
    "default": {
      "font": "roboto",
      "fontColor": "white"
    }
  },
  com.badlogic.gdx.scenes.scene2d.ui.Touchpad$TouchpadStyle: {
    default: {
      background: default-pane,
      knob: default-round-large
    }
  },
}
